<?xml version="1.0" encoding="UTF-8"?>
<session version="1.0">
<refactoring comment="Delete resource &apos;xzczxc&apos;" deleteContents="false" description="Delete resource &apos;xzczxc&apos;" element1="/xzczxc" flags="7" id="org.eclipse.ltk.core.refactoring.delete.resources" resources="1" stamp="1527694377827"/>
</session>